EO-165 
FY18-003773 Indigo - Canada 
Mark Gemmill 
Melaney Snow 
 
Requirements 
Unresolved 
07/05/2018 
11/07/2018 
  
1 

Actions 

 
EO-164 
FY18-003772 Toys R Us Canada 
Mark Gemmill 
Melaney Snow 
 
Requirements 
Unresolved 
07/05/2018 
11/07/2018 
  
1 


 
EO-273 
WO 271175 Sobeys Canada 810 Fix 
Collin Smith 
Ed Ferreira 
 
In Development 
Unresolved 
10/18/2018 
10/30/2018 
  
1 


 
EO-110 
FY18-003461 Loblaw Canada 5010 upgrade 
Mark Gemmill 
Melaney Snow 
 
In QA 
Unresolved 
06/06/2018 
08/23/2018 
  
1 


 
EO-109 
FY18-003684 Freson Bros Canada 810 
Mark Gemmill 
Melaney Snow 
 
In UAT 
Unresolved 
06/06/2018 
08/14/2018 
  
1 


 
EO-111 
FY18-003470 Canada Vendor EDI 810/B2Be Integration 
Ed Ferreira 
Melaney Snow 
 
In Deployment 
Unresolved 
06/06/2018 
11/08/2018 
  
1 


 
EO-42 
FY16-002908 Farmboy/Canada 
Ed Ferreira 
Melaney Snow 
 
In Deployment 
Unresolved 
05/09/2018 
11/08/2018 
  
1 


 
EO-211 
INC 508850 Walmart Canada - EDI 810 Terms Fix 
Ed Ferreira 
Ed Ferreira 
 
Hyper Support 
Unresolved 
08/16/2018 
10/25/2018 
  
1 


 
EO-112 
FY17-003257 Canada Vendor 850 integration 
Mark Gemmill 
Melaney Snow 
 
UNFI Hold 
Unresolved 
06/06/2018 
09/05/2018 
  
1 


 
EO-106 
INC 493545 Canada Primary Document Check 
Unassigned 
Ed Ferreira 
 
UNFI Hold 
Unresolved 
06/05/2018 
08/20/2018 
  
1 
